{
  "$schema": "http://json-schema.org/draft-07/schema",
  "$id": "http://example.com/example.json",
  "type": "object",
  "title": "The root schema",
  "description": "The root schema comprises the entire JSON document.",
  "default": {},
  "examples": [
    {
      "meta": {
        "pagination": {
          "total": 3244,
          "pages": 163,
          "page": 1,
          "limit": 20,
          "links": {
            "previous": null,
            "current": "https://gorest.co.in/public/v1/users?page=1",
            "next": "https://gorest.co.in/public/v1/users?page=2"
          }
        }
      },
      "data": [
        {
          "id": 3257,
          "name": "Chatura Bhattacharya",
          "email": "bhattacharya_chatura@ziemann-crist.biz",
          "gender": "female",
          "status": "inactive"
        },
        {
          "id": 3256,
          "name": "Prayag Somayaji",
          "email": "somayaji_prayag@franecki-morissette.net",
          "gender": "male",
          "status": "active"
        },
        {
          "id": 3255,
          "name": "Gemini Shukla",
          "email": "shukla_gemini@bernier.io",
          "gender": "male",
          "status": "inactive"
        },
        {
          "id": 3254,
          "name": "Suman Agarwal",
          "email": "agarwal_suman@rohan.net",
          "gender": "male",
          "status": "active"
        },
        {
          "id": 3253,
          "name": "Sushil Bhattathiri Jr.",
          "email": "jr_sushil_bhattathiri@davis.org",
          "gender": "female",
          "status": "active"
        },
        {
          "id": 3252,
          "name": "Msgr. Acharyasuta Somayaji",
          "email": "somayaji_msgr_acharyasuta@robel-hahn.net",
          "gender": "male",
          "status": "active"
        },
        {
          "id": 3251,
          "name": "Gopaal Verma DVM",
          "email": "verma_dvm_gopaal@ondricka.org",
          "gender": "male",
          "status": "inactive"
        },
        {
          "id": 3250,
          "name": "Achalesvara Kaur",
          "email": "achalesvara_kaur@yost.name",
          "gender": "female",
          "status": "active"
        },
        {
          "id": 3249,
          "name": "Chaanakya Abbott",
          "email": "abbott_chaanakya@hagenes.biz",
          "gender": "female",
          "status": "active"
        },
        {
          "id": 3248,
          "name": "Malti Somayaji",
          "email": "malti_somayaji@mraz.co",
          "gender": "male",
          "status": "inactive"
        },
        {
          "id": 3247,
          "name": "Jyotsana Jha",
          "email": "jha_jyotsana@dach.net",
          "gender": "male",
          "status": "inactive"
        },
        {
          "id": 3246,
          "name": "Govinda Pothuvaal",
          "email": "pothuvaal_govinda@casper.name",
          "gender": "male",
          "status": "inactive"
        },
        {
          "id": 3245,
          "name": "Pres. Chandramohan Somayaji",
          "email": "somayaji_pres_chandramohan@kunze-grant.co",
          "gender": "female",
          "status": "inactive"
        },
        {
          "id": 3244,
          "name": "Mr. Bhadrak Tandon",
          "email": "bhadrak_tandon_mr@dooley.co",
          "gender": "male",
          "status": "inactive"
        },
        {
          "id": 3243,
          "name": "Shakuntala Shukla",
          "email": "shukla_shakuntala@hamill.org",
          "gender": "male",
          "status": "inactive"
        },
        {
          "id": 3242,
          "name": "Krishnadasa Dubashi DO",
          "email": "krishnadasa_dubashi_do@witting.com",
          "gender": "male",
          "status": "active"
        },
        {
          "id": 3241,
          "name": "Ramaa Patil DO",
          "email": "patil_do_ramaa@cartwright.net",
          "gender": "male",
          "status": "active"
        },
        {
          "id": 3240,
          "name": "Dwaipayan Rana Sr.",
          "email": "dwaipayan_sr_rana@simonis-grimes.name",
          "gender": "male",
          "status": "active"
        },
        {
          "id": 3239,
          "name": "The Hon. Chidaakaash Kaul",
          "email": "hon_kaul_the_chidaakaash@braun.io",
          "gender": "female",
          "status": "inactive"
        },
        {
          "id": 3238,
          "name": "Harita Pilla",
          "email": "pilla_harita@conroy.co",
          "gender": "male",
          "status": "inactive"
        }
      ]
    }
  ],
  "required": [
    "meta",
    "data"
  ],
  "properties": {
    "meta": {
      "$id": "#/properties/meta",
      "type": "object",
      "title": "The meta schema",
      "description": "An explanation about the purpose of this instance.",
      "default": {},
      "examples": [
        {
          "pagination": {
            "total": 3244,
            "pages": 163,
            "page": 1,
            "limit": 20,
            "links": {
              "previous": null,
              "current": "https://gorest.co.in/public/v1/users?page=1",
              "next": "https://gorest.co.in/public/v1/users?page=2"
            }
          }
        }
      ],
      "required": [
        "pagination"
      ],
      "properties": {
        "pagination": {
          "$id": "#/properties/meta/properties/pagination",
          "type": "object",
          "title": "The pagination schema",
          "description": "An explanation about the purpose of this instance.",
          "default": {},
          "examples": [
            {
              "total": 3244,
              "pages": 163,
              "page": 1,
              "limit": 20,
              "links": {
                "previous": null,
                "current": "https://gorest.co.in/public/v1/users?page=1",
                "next": "https://gorest.co.in/public/v1/users?page=2"
              }
            }
          ],
          "required": [
            "total",
            "pages",
            "page",
            "limit",
            "links"
          ],
          "properties": {
            "total": {
              "$id": "#/properties/meta/properties/pagination/properties/total",
              "type": "integer",
              "title": "The total schema",
              "description": "An explanation about the purpose of this instance.",
              "default": 0,
              "examples": [
                3244
              ]
            },
            "pages": {
              "$id": "#/properties/meta/properties/pagination/properties/pages",
              "type": "integer",
              "title": "The pages schema",
              "description": "An explanation about the purpose of this instance.",
              "default": 0,
              "examples": [
                163
              ]
            },
            "page": {
              "$id": "#/properties/meta/properties/pagination/properties/page",
              "type": "integer",
              "title": "The page schema",
              "description": "An explanation about the purpose of this instance.",
              "default": 0,
              "examples": [
                1
              ]
            },
            "limit": {
              "$id": "#/properties/meta/properties/pagination/properties/limit",
              "type": "integer",
              "title": "The limit schema",
              "description": "An explanation about the purpose of this instance.",
              "default": 0,
              "examples": [
                20
              ]
            },
            "links": {
              "$id": "#/properties/meta/properties/pagination/properties/links",
              "type": "object",
              "title": "The links schema",
              "description": "An explanation about the purpose of this instance.",
              "default": {},
              "examples": [
                {
                  "previous": null,
                  "current": "https://gorest.co.in/public/v1/users?page=1",
                  "next": "https://gorest.co.in/public/v1/users?page=2"
                }
              ],
              "required": [
                "previous",
                "current",
                "next"
              ],
              "properties": {
                "previous": {
                  "$id": "#/properties/meta/properties/pagination/properties/links/properties/previous",
                  "type": "null",
                  "title": "The previous schema",
                  "description": "An explanation about the purpose of this instance.",
                  "default": null,
                  "examples": [
                    null
                  ]
                },
                "current": {
                  "$id": "#/properties/meta/properties/pagination/properties/links/properties/current",
                  "type": "string",
                  "title": "The current schema",
                  "description": "An explanation about the purpose of this instance.",
                  "default": "",
                  "examples": [
                    "https://gorest.co.in/public/v1/users?page=1"
                  ]
                },
                "next": {
                  "$id": "#/properties/meta/properties/pagination/properties/links/properties/next",
                  "type": "string",
                  "title": "The next schema",
                  "description": "An explanation about the purpose of this instance.",
                  "default": "",
                  "examples": [
                    "https://gorest.co.in/public/v1/users?page=2"
                  ]
                }
              },
              "additionalProperties": true
            }
          },
          "additionalProperties": true
        }
      },
      "additionalProperties": true
    },
    "data": {
      "$id": "#/properties/data",
      "type": "array",
      "title": "The data schema",
      "description": "An explanation about the purpose of this instance.",
      "default": [],
      "examples": [
        [
          {
            "id": 3257,
            "name": "Chatura Bhattacharya",
            "email": "bhattacharya_chatura@ziemann-crist.biz",
            "gender": "female",
            "status": "inactive"
          },
          {
            "id": 3256,
            "name": "Prayag Somayaji",
            "email": "somayaji_prayag@franecki-morissette.net",
            "gender": "male",
            "status": "active"
          }
        ]
      ],
      "additionalItems": true,
      "items": {
        "$id": "#/properties/data/items",
        "anyOf": [
          {
            "$id": "#/properties/data/items/anyOf/0",
            "type": "object",
            "title": "The first anyOf schema",
            "description": "An explanation about the purpose of this instance.",
            "default": {},
            "examples": [
              {
                "id": 3257,
                "name": "Chatura Bhattacharya",
                "email": "bhattacharya_chatura@ziemann-crist.biz",
                "gender": "female",
                "status": "inactive"
              }
            ],
            "required": [
              "id",
              "name",
              "email",
              "gender",
              "status"
            ],
            "properties": {
              "id": {
                "$id": "#/properties/data/items/anyOf/0/properties/id",
                "type": "integer",
                "title": "The id schema",
                "description": "An explanation about the purpose of this instance.",
                "default": 0,
                "examples": [
                  3257
                ]
              },
              "name": {
                "$id": "#/properties/data/items/anyOf/0/properties/name",
                "type": "string",
                "title": "The name schema",
                "description": "An explanation about the purpose of this instance.",
                "default": "",
                "examples": [
                  "Chatura Bhattacharya"
                ]
              },
              "email": {
                "$id": "#/properties/data/items/anyOf/0/properties/email",
                "type": "string",
                "title": "The email schema",
                "description": "An explanation about the purpose of this instance.",
                "default": "",
                "examples": [
                  "bhattacharya_chatura@ziemann-crist.biz"
                ]
              },
              "gender": {
                "$id": "#/properties/data/items/anyOf/0/properties/gender",
                "type": "string",
                "title": "The gender schema",
                "description": "An explanation about the purpose of this instance.",
                "default": "",
                "examples": [
                  "female"
                ]
              },
              "status": {
                "$id": "#/properties/data/items/anyOf/0/properties/status",
                "type": "string",
                "title": "The status schema",
                "description": "An explanation about the purpose of this instance.",
                "default": "",
                "examples": [
                  "inactive"
                ]
              }
            },
            "additionalProperties": true
          }
        ]
      }
    }
  },
  "additionalProperties": true
}